{
  "Name": "Aditi.Composite2",
  "Description": "Composite2 Gets a VM in place.",
  "Version": "0.3.0",
  "Parameters": [
    {
      "Name": "Region",
      "Type": "String",
      "TypeHint": "AzureRegionName",
      "Description": "Name of Azure region."
    },
    {
      "Name": "AffinityGroup",
      "Type": "String",
      "TypeHint": "AzureAffinityGroupName",
      "Description": "Name of Azure affinity group."
    },
    {
      "Name": "CompositeLeaf",
      "Type": "String",
      "TypeHint": "AzureCloudServiceName",
      "Description": "Name of the Test2 Azure Cloud Service."
    },
    {
      "Name": "Composite31",
      "Type": "String",
      "TypeHint": "AzureCloudServiceName",
      "Description": "Name of the Test2 Azure Cloud Service."
    },
    {
      "Name": "Composite32",
      "Type": "String",
      "TypeHint": "AzureCloudServiceName",
      "Description": "Name of the Test2 Azure Cloud Service."
    },
    {
      "Name": "DiskStore",
      "Type": "String",
      "TypeHint": "AzureStorageName",
      "Description": "Name of Azure disk storage account."
    }
  ],
  "AffinityGroup": {
    "Name": "{{AffinityGroup}}",
    "Region": "{{Region}}",
    "Label": "DSC created affinity group"
  },
  "ParameterMaps": [
    {
      "ParameterName": "CompositeLeaf",
      "TemplateName": "compositeleaf5",
      "TemplateParameterName": "CloudService"
    },
    {
      "ParameterName": "Composite31",
      "TemplateName": "composite3",
      "TemplateParameterName": "CompositeLeaf1"
    },
    {
      "ParameterName": "Composite32",
      "TemplateName": "composite3",
      "TemplateParameterName": "CompositeLeaf2"
    }
  ],
  "Templates": [
    {
      "Name": "compositeleaf5",
      "TemplateId": "dc2de6b1161a5584b0fb1724678b1827",
      "Commit": "master"
    },
    {
      "Name": "composite3",
      "TemplateId": "528e11fbe7085a529213e135ce22f684",
      "Commit": "master"
    }
  ]
}
